Denmark Tan,23,denmark@yahoo.com,Ayala Part 2 (2).jpg
Maria,32,maria@yahoo.com,Ayala Part 2 (2).jpg
ccc,23,denmark@yahoo.com,Ayala Part 2 (5).jpg
Menandro Ortego,23,denmark@yahoo.com,Ayala Part 2 (6).jpg
den,23,denmark@yahoo.com,Ayala Part 2 (9).jpg
Maria Clarissa,45,denmark@youp.com,Ayala Part 2 (12).jpg
Kim,34,denmark@yahoo.com,Ayala Part 2 (6).jpg
Denmark Tan,23,denmark@yahoo.com,Ayala Part 2 (2).jpg
Dd,22,denmark@yahoo.com,Ayala Part 2 (10).jpg
Ccc,22,denmark@yahoo.com,Ayala Part 2 (1).jpg
